ERROR: 2022/01/02 13:24:53 D:/project_golang/market-jasa/main.go:54: health check timeout: no Elasticsearch node available
ERROR: 2022/01/02 16:12:34 D:/project_golang/market-jasa/handler/masteruser.go:392: elastic: Error 404 (Not Found): no such index [user_master_tukang] [type=index_not_found_exception]
ERROR: 2022/01/02 16:13:53 D:/project_golang/market-jasa/handler/masteruser.go:392: elastic: Error 404 (Not Found): no such index [user_master_tukang] [type=index_not_found_exception]
ERROR: 2022/01/02 16:51:21 D:/project_golang/market-jasa/handler/masteruser.go:392: elastic: Error 400 (Bad Request): all shards failed [type=search_phase_execution_exception]
