ERROR: 2021/12/28 00:27:35 D:/project_golang/market-jasa/handler/slider.go:78: open images/slider/workers-examining-work.jpg: The system cannot find the path specified.
ERROR: 2021/12/28 08:41:43 D:/project_golang/market-jasa/handler/slider.go:83: open images/slider/urn:uuid:e847e78f-30a7-4195-a191-ebcbe171c56d: The filename, directory name, or volume label syntax is incorrect.
ERROR: 2021/12/28 09:17:26 D:/project_golang/market-jasa/handler/masteruser.go:294: request Content-Type isn't multipart/form-data
